('C:\\Users\\null\\Documents\\distraction-helper\\build\\distraction-helper\\PYZ-00.pyz',
 [('os',
   'C:\\Users\\null\\anaconda3\\envs\\distraction-helper\\lib\\os.py',
   'PYMODULE'),
  ('subprocess',
   'C:\\Users\\null\\anaconda3\\envs\\distraction-helper\\lib\\subprocess.py',
   'PYMODULE'),
  ('selectors',
   'C:\\Users\\null\\anaconda3\\envs\\distraction-helper\\lib\\selectors.py',
   'PYMODULE'),
  ('contextlib',
   'C:\\Users\\null\\anaconda3\\envs\\distraction-helper\\lib\\contextlib.py',
   'PYMODULE'),
  ('threading',
   'C:\\Users\\null\\anaconda3\\envs\\distraction-helper\\lib\\threading.py',
   'PYMODULE'),
  ('_threading_local',
   'C:\\Users\\null\\anaconda3\\envs\\distraction-helper\\lib\\_threading_local.py',
   'PYMODULE'),
  ('signal',
   'C:\\Users\\null\\anaconda3\\envs\\distraction-helper\\lib\\signal.py',
   'PYMODULE'),
  ('ntpath',
   'C:\\Users\\null\\anaconda3\\envs\\distraction-helper\\lib\\ntpath.py',
   'PYMODULE'),
  ('string',
   'C:\\Users\\null\\anaconda3\\envs\\distraction-helper\\lib\\string.py',
   'PYMODULE'),
  ('genericpath',
   'C:\\Users\\null\\anaconda3\\envs\\distraction-helper\\lib\\genericpath.py',
   'PYMODULE'),
  ('posixpath',
   'C:\\Users\\null\\anaconda3\\envs\\distraction-helper\\lib\\posixpath.py',
   'PYMODULE'),
  ('stat',
   'C:\\Users\\null\\anaconda3\\envs\\distraction-helper\\lib\\stat.py',
   'PYMODULE'),
  ('pywintypes',
   'C:\\Users\\null\\anaconda3\\envs\\distraction-helper\\lib\\site-packages\\win32\\lib\\pywintypes.py',
   'PYMODULE'),
  ('distutils.sysconfig',
   'C:\\Users\\null\\anaconda3\\envs\\distraction-helper\\lib\\distutils\\sysconfig.py',
   'PYMODULE'),
  ('distutils',
   'C:\\Users\\null\\anaconda3\\envs\\distraction-helper\\lib\\distutils\\__init__.py',
   'PYMODULE'),
  ('distutils.ccompiler',
   'C:\\Users\\null\\anaconda3\\envs\\distraction-helper\\lib\\distutils\\ccompiler.py',
   'PYMODULE'),
  ('distutils.fancy_getopt',
   'C:\\Users\\null\\anaconda3\\envs\\distraction-helper\\lib\\distutils\\fancy_getopt.py',
   'PYMODULE'),
  ('getopt',
   'C:\\Users\\null\\anaconda3\\envs\\distraction-helper\\lib\\getopt.py',
   'PYMODULE'),
  ('gettext',
   'C:\\Users\\null\\anaconda3\\envs\\distraction-helper\\lib\\gettext.py',
   'PYMODULE'),
  ('copy',
   'C:\\Users\\null\\anaconda3\\envs\\distraction-helper\\lib\\copy.py',
   'PYMODULE'),
  ('struct',
   'C:\\Users\\null\\anaconda3\\envs\\distraction-helper\\lib\\struct.py',
   'PYMODULE'),
  ('distutils.debug',
   'C:\\Users\\null\\anaconda3\\envs\\distraction-helper\\lib\\distutils\\debug.py',
   'PYMODULE'),
  ('tempfile',
   'C:\\Users\\null\\anaconda3\\envs\\distraction-helper\\lib\\tempfile.py',
   'PYMODULE'),
  ('random',
   'C:\\Users\\null\\anaconda3\\envs\\distraction-helper\\lib\\random.py',
   'PYMODULE'),
  ('statistics',
   'C:\\Users\\null\\anaconda3\\envs\\distraction-helper\\lib\\statistics.py',
   'PYMODULE'),
  ('decimal',
   'C:\\Users\\null\\anaconda3\\envs\\distraction-helper\\lib\\decimal.py',
   'PYMODULE'),
  ('_pydecimal',
   'C:\\Users\\null\\anaconda3\\envs\\distraction-helper\\lib\\_pydecimal.py',
   'PYMODULE'),
  ('contextvars',
   'C:\\Users\\null\\anaconda3\\envs\\distraction-helper\\lib\\contextvars.py',
   'PYMODULE'),
  ('fractions',
   'C:\\Users\\null\\anaconda3\\envs\\distraction-helper\\lib\\fractions.py',
   'PYMODULE'),
  ('numbers',
   'C:\\Users\\null\\anaconda3\\envs\\distraction-helper\\lib\\numbers.py',
   'PYMODULE'),
  ('hashlib',
   'C:\\Users\\null\\anaconda3\\envs\\distraction-helper\\lib\\hashlib.py',
   'PYMODULE'),
  ('logging',
   'C:\\Users\\null\\anaconda3\\envs\\distraction-helper\\lib\\logging\\__init__.py',
   'PYMODULE'),
  ('pickle',
   'C:\\Users\\null\\anaconda3\\envs\\distraction-helper\\lib\\pickle.py',
   'PYMODULE'),
  ('pprint',
   'C:\\Users\\null\\anaconda3\\envs\\distraction-helper\\lib\\pprint.py',
   'PYMODULE'),
  ('doctest',
   'C:\\Users\\null\\anaconda3\\envs\\distraction-helper\\lib\\doctest.py',
   'PYMODULE'),
  ('argparse',
   'C:\\Users\\null\\anaconda3\\envs\\distraction-helper\\lib\\argparse.py',
   'PYMODULE'),
  ('textwrap',
   'C:\\Users\\null\\anaconda3\\envs\\distraction-helper\\lib\\textwrap.py',
   'PYMODULE'),
  ('unittest',
   'C:\\Users\\null\\anaconda3\\envs\\distraction-helper\\lib\\unittest\\__init__.py',
   'PYMODULE'),
  ('unittest.async_case',
   'C:\\Users\\null\\anaconda3\\envs\\distraction-helper\\lib\\unittest\\async_case.py',
   'PYMODULE'),
  ('asyncio',
   'C:\\Users\\null\\anaconda3\\envs\\distraction-helper\\lib\\asyncio\\__init__.py',
   'PYMODULE'),
  ('asyncio.unix_events',
   'C:\\Users\\null\\anaconda3\\envs\\distraction-helper\\lib\\asyncio\\unix_events.py',
   'PYMODULE'),
  ('asyncio.log',
   'C:\\Users\\null\\anaconda3\\envs\\distraction-helper\\lib\\asyncio\\log.py',
   'PYMODULE'),
  ('socket',
   'C:\\Users\\null\\anaconda3\\envs\\distraction-helper\\lib\\socket.py',
   'PYMODULE'),
  ('asyncio.windows_events',
   'C:\\Users\\null\\anaconda3\\envs\\distraction-helper\\lib\\asyncio\\windows_events.py',
   'PYMODULE'),
  ('asyncio.windows_utils',
   'C:\\Users\\null\\anaconda3\\envs\\distraction-helper\\lib\\asyncio\\windows_utils.py',
   'PYMODULE'),
  ('asyncio.selector_events',
   'C:\\Users\\null\\anaconda3\\envs\\distraction-helper\\lib\\asyncio\\selector_events.py',
   'PYMODULE'),
  ('ssl',
   'C:\\Users\\null\\anaconda3\\envs\\distraction-helper\\lib\\ssl.py',
   'PYMODULE'),
  ('calendar',
   'C:\\Users\\null\\anaconda3\\envs\\distraction-helper\\lib\\calendar.py',
   'PYMODULE'),
  ('datetime',
   'C:\\Users\\null\\anaconda3\\envs\\distraction-helper\\lib\\datetime.py',
   'PYMODULE'),
  ('_strptime',
   'C:\\Users\\null\\anaconda3\\envs\\distraction-helper\\lib\\_strptime.py',
   'PYMODULE'),
  ('base64',
   'C:\\Users\\null\\anaconda3\\envs\\distraction-helper\\lib\\base64.py',
   'PYMODULE'),
  ('asyncio.proactor_events',
   'C:\\Users\\null\\anaconda3\\envs\\distraction-helper\\lib\\asyncio\\proactor_events.py',
   'PYMODULE'),
  ('asyncio.base_subprocess',
   'C:\\Users\\null\\anaconda3\\envs\\distraction-helper\\lib\\asyncio\\base_subprocess.py',
   'PYMODULE'),
  ('asyncio.threads',
   'C:\\Users\\null\\anaconda3\\envs\\distraction-helper\\lib\\asyncio\\threads.py',
   'PYMODULE'),
  ('asyncio.subprocess',
   'C:\\Users\\null\\anaconda3\\envs\\distraction-helper\\lib\\asyncio\\subprocess.py',
   'PYMODULE'),
  ('asyncio.streams',
   'C:\\Users\\null\\anaconda3\\envs\\distraction-helper\\lib\\asyncio\\streams.py',
   'PYMODULE'),
  ('asyncio.queues',
   'C:\\Users\\null\\anaconda3\\envs\\distraction-helper\\lib\\asyncio\\queues.py',
   'PYMODULE'),
  ('asyncio.runners',
   'C:\\Users\\null\\anaconda3\\envs\\distraction-helper\\lib\\asyncio\\runners.py',
   'PYMODULE'),
  ('asyncio.events',
   'C:\\Users\\null\\anaconda3\\envs\\distraction-helper\\lib\\asyncio\\events.py',
   'PYMODULE'),
  ('asyncio.base_events',
   'C:\\Users\\null\\anaconda3\\envs\\distraction-helper\\lib\\asyncio\\base_events.py',
   'PYMODULE'),
  ('concurrent.futures',
   'C:\\Users\\null\\anaconda3\\envs\\distraction-helper\\lib\\concurrent\\futures\\__init__.py',
   'PYMODULE'),
  ('concurrent.futures.thread',
   'C:\\Users\\null\\anaconda3\\envs\\distraction-helper\\lib\\concurrent\\futures\\thread.py',
   'PYMODULE'),
  ('queue',
   'C:\\Users\\null\\anaconda3\\envs\\distraction-helper\\lib\\queue.py',
   'PYMODULE'),
  ('concurrent.futures.process',
   'C:\\Users\\null\\anaconda3\\envs\\distraction-helper\\lib\\concurrent\\futures\\process.py',
   'PYMODULE'),
  ('multiprocessing.queues',
   'C:\\Users\\null\\anaconda3\\envs\\distraction-helper\\lib\\multiprocessing\\queues.py',
   'PYMODULE'),
  ('multiprocessing.synchronize',
   'C:\\Users\\null\\anaconda3\\envs\\distraction-helper\\lib\\multiprocessing\\synchronize.py',
   'PYMODULE'),
  ('multiprocessing.heap',
   'C:\\Users\\null\\anaconda3\\envs\\distraction-helper\\lib\\multiprocessing\\heap.py',
   'PYMODULE'),
  ('multiprocessing.resource_tracker',
   'C:\\Users\\null\\anaconda3\\envs\\distraction-helper\\lib\\multiprocessing\\resource_tracker.py',
   'PYMODULE'),
  ('multiprocessing.spawn',
   'C:\\Users\\null\\anaconda3\\envs\\distraction-helper\\lib\\multiprocessing\\spawn.py',
   'PYMODULE'),
  ('runpy',
   'C:\\Users\\null\\anaconda3\\envs\\distraction-helper\\lib\\runpy.py',
   'PYMODULE'),
  ('pkgutil',
   'C:\\Users\\null\\anaconda3\\envs\\distraction-helper\\lib\\pkgutil.py',
   'PYMODULE'),
  ('zipimport',
   'C:\\Users\\null\\anaconda3\\envs\\distraction-helper\\lib\\zipimport.py',
   'PYMODULE'),
  ('pathlib',
   'C:\\Users\\null\\anaconda3\\envs\\distraction-helper\\lib\\pathlib.py',
   'PYMODULE'),
  ('urllib.parse',
   'C:\\Users\\null\\anaconda3\\envs\\distraction-helper\\lib\\urllib\\parse.py',
   'PYMODULE'),
  ('urllib',
   'C:\\Users\\null\\anaconda3\\envs\\distraction-helper\\lib\\urllib\\__init__.py',
   'PYMODULE'),
  ('fnmatch',
   'C:\\Users\\null\\anaconda3\\envs\\distraction-helper\\lib\\fnmatch.py',
   'PYMODULE'),
  ('importlib.abc',
   'C:\\Users\\null\\anaconda3\\envs\\distraction-helper\\lib\\importlib\\abc.py',
   'PYMODULE'),
  ('typing',
   'C:\\Users\\null\\anaconda3\\envs\\distraction-helper\\lib\\typing.py',
   'PYMODULE'),
  ('importlib._bootstrap_external',
   'C:\\Users\\null\\anaconda3\\envs\\distraction-helper\\lib\\importlib\\_bootstrap_external.py',
   'PYMODULE'),
  ('importlib.metadata',
   'C:\\Users\\null\\anaconda3\\envs\\distraction-helper\\lib\\importlib\\metadata.py',
   'PYMODULE'),
  ('configparser',
   'C:\\Users\\null\\anaconda3\\envs\\distraction-helper\\lib\\configparser.py',
   'PYMODULE'),
  ('zipfile',
   'C:\\Users\\null\\anaconda3\\envs\\distraction-helper\\lib\\zipfile.py',
   'PYMODULE'),
  ('py_compile',
   'C:\\Users\\null\\anaconda3\\envs\\distraction-helper\\lib\\py_compile.py',
   'PYMODULE'),
  ('lzma',
   'C:\\Users\\null\\anaconda3\\envs\\distraction-helper\\lib\\lzma.py',
   'PYMODULE'),
  ('_compression',
   'C:\\Users\\null\\anaconda3\\envs\\distraction-helper\\lib\\_compression.py',
   'PYMODULE'),
  ('bz2',
   'C:\\Users\\null\\anaconda3\\envs\\distraction-helper\\lib\\bz2.py',
   'PYMODULE'),
  ('email',
   'C:\\Users\\null\\anaconda3\\envs\\distraction-helper\\lib\\email\\__init__.py',
   'PYMODULE'),
  ('email.parser',
   'C:\\Users\\null\\anaconda3\\envs\\distraction-helper\\lib\\email\\parser.py',
   'PYMODULE'),
  ('email._policybase',
   'C:\\Users\\null\\anaconda3\\envs\\distraction-helper\\lib\\email\\_policybase.py',
   'PYMODULE'),
  ('email.utils',
   'C:\\Users\\null\\anaconda3\\envs\\distraction-helper\\lib\\email\\utils.py',
   'PYMODULE'),
  ('email._parseaddr',
   'C:\\Users\\null\\anaconda3\\envs\\distraction-helper\\lib\\email\\_parseaddr.py',
   'PYMODULE'),
  ('email.feedparser',
   'C:\\Users\\null\\anaconda3\\envs\\distraction-helper\\lib\\email\\feedparser.py',
   'PYMODULE'),
  ('email.message',
   'C:\\Users\\null\\anaconda3\\envs\\distraction-helper\\lib\\email\\message.py',
   'PYMODULE'),
  ('email.policy',
   'C:\\Users\\null\\anaconda3\\envs\\distraction-helper\\lib\\email\\policy.py',
   'PYMODULE'),
  ('email.contentmanager',
   'C:\\Users\\null\\anaconda3\\envs\\distraction-helper\\lib\\email\\contentmanager.py',
   'PYMODULE'),
  ('email.quoprimime',
   'C:\\Users\\null\\anaconda3\\envs\\distraction-helper\\lib\\email\\quoprimime.py',
   'PYMODULE'),
  ('email.headerregistry',
   'C:\\Users\\null\\anaconda3\\envs\\distraction-helper\\lib\\email\\headerregistry.py',
   'PYMODULE'),
  ('email.iterators',
   'C:\\Users\\null\\anaconda3\\envs\\distraction-helper\\lib\\email\\iterators.py',
   'PYMODULE'),
  ('email.generator',
   'C:\\Users\\null\\anaconda3\\envs\\distraction-helper\\lib\\email\\generator.py',
   'PYMODULE'),
  ('email._encoded_words',
   'C:\\Users\\null\\anaconda3\\envs\\distraction-helper\\lib\\email\\_encoded_words.py',
   'PYMODULE'),
  ('quopri',
   'C:\\Users\\null\\anaconda3\\envs\\distraction-helper\\lib\\quopri.py',
   'PYMODULE'),
  ('uu',
   'C:\\Users\\null\\anaconda3\\envs\\distraction-helper\\lib\\uu.py',
   'PYMODULE'),
  ('optparse',
   'C:\\Users\\null\\anaconda3\\envs\\distraction-helper\\lib\\optparse.py',
   'PYMODULE'),
  ('email._header_value_parser',
   'C:\\Users\\null\\anaconda3\\envs\\distraction-helper\\lib\\email\\_header_value_parser.py',
   'PYMODULE'),
  ('email.header',
   'C:\\Users\\null\\anaconda3\\envs\\distraction-helper\\lib\\email\\header.py',
   'PYMODULE'),
  ('email.base64mime',
   'C:\\Users\\null\\anaconda3\\envs\\distraction-helper\\lib\\email\\base64mime.py',
   'PYMODULE'),
  ('email.charset',
   'C:\\Users\\null\\anaconda3\\envs\\distraction-helper\\lib\\email\\charset.py',
   'PYMODULE'),
  ('email.encoders',
   'C:\\Users\\null\\anaconda3\\envs\\distraction-helper\\lib\\email\\encoders.py',
   'PYMODULE'),
  ('email.errors',
   'C:\\Users\\null\\anaconda3\\envs\\distraction-helper\\lib\\email\\errors.py',
   'PYMODULE'),
  ('csv',
   'C:\\Users\\null\\anaconda3\\envs\\distraction-helper\\lib\\csv.py',
   'PYMODULE'),
  ('tokenize',
   'C:\\Users\\null\\anaconda3\\envs\\distraction-helper\\lib\\tokenize.py',
   'PYMODULE'),
  ('token',
   'C:\\Users\\null\\anaconda3\\envs\\distraction-helper\\lib\\token.py',
   'PYMODULE'),
  ('importlib._bootstrap',
   'C:\\Users\\null\\anaconda3\\envs\\distraction-helper\\lib\\importlib\\_bootstrap.py',
   'PYMODULE'),
  ('importlib',
   'C:\\Users\\null\\anaconda3\\envs\\distraction-helper\\lib\\importlib\\__init__.py',
   'PYMODULE'),
  ('importlib.util',
   'C:\\Users\\null\\anaconda3\\envs\\distraction-helper\\lib\\importlib\\util.py',
   'PYMODULE'),
  ('importlib.machinery',
   'C:\\Users\\null\\anaconda3\\envs\\distraction-helper\\lib\\importlib\\machinery.py',
   'PYMODULE'),
  ('multiprocessing.process',
   'C:\\Users\\null\\anaconda3\\envs\\distraction-helper\\lib\\multiprocessing\\process.py',
   'PYMODULE'),
  ('multiprocessing.util',
   'C:\\Users\\null\\anaconda3\\envs\\distraction-helper\\lib\\multiprocessing\\util.py',
   'PYMODULE'),
  ('multiprocessing.forkserver',
   'C:\\Users\\null\\anaconda3\\envs\\distraction-helper\\lib\\multiprocessing\\forkserver.py',
   'PYMODULE'),
  ('multiprocessing.context',
   'C:\\Users\\null\\anaconda3\\envs\\distraction-helper\\lib\\multiprocessing\\context.py',
   'PYMODULE'),
  ('multiprocessing.popen_spawn_win32',
   'C:\\Users\\null\\anaconda3\\envs\\distraction-helper\\lib\\multiprocessing\\popen_spawn_win32.py',
   'PYMODULE'),
  ('multiprocessing.popen_forkserver',
   'C:\\Users\\null\\anaconda3\\envs\\distraction-helper\\lib\\multiprocessing\\popen_forkserver.py',
   'PYMODULE'),
  ('multiprocessing.popen_spawn_posix',
   'C:\\Users\\null\\anaconda3\\envs\\distraction-helper\\lib\\multiprocessing\\popen_spawn_posix.py',
   'PYMODULE'),
  ('multiprocessing.popen_fork',
   'C:\\Users\\null\\anaconda3\\envs\\distraction-helper\\lib\\multiprocessing\\popen_fork.py',
   'PYMODULE'),
  ('multiprocessing.sharedctypes',
   'C:\\Users\\null\\anaconda3\\envs\\distraction-helper\\lib\\multiprocessing\\sharedctypes.py',
   'PYMODULE'),
  ('ctypes',
   'C:\\Users\\null\\anaconda3\\envs\\distraction-helper\\lib\\ctypes\\__init__.py',
   'PYMODULE'),
  ('ctypes._endian',
   'C:\\Users\\null\\anaconda3\\envs\\distraction-helper\\lib\\ctypes\\_endian.py',
   'PYMODULE'),
  ('multiprocessing.pool',
   'C:\\Users\\null\\anaconda3\\envs\\distraction-helper\\lib\\multiprocessing\\pool.py',
   'PYMODULE'),
  ('multiprocessing.dummy',
   'C:\\Users\\null\\anaconda3\\envs\\distraction-helper\\lib\\multiprocessing\\dummy\\__init__.py',
   'PYMODULE'),
  ('multiprocessing.dummy.connection',
   'C:\\Users\\null\\anaconda3\\envs\\distraction-helper\\lib\\multiprocessing\\dummy\\connection.py',
   'PYMODULE'),
  ('multiprocessing.managers',
   'C:\\Users\\null\\anaconda3\\envs\\distraction-helper\\lib\\multiprocessing\\managers.py',
   'PYMODULE'),
  ('multiprocessing.shared_memory',
   'C:\\Users\\null\\anaconda3\\envs\\distraction-helper\\lib\\multiprocessing\\shared_memory.py',
   'PYMODULE'),
  ('secrets',
   'C:\\Users\\null\\anaconda3\\envs\\distraction-helper\\lib\\secrets.py',
   'PYMODULE'),
  ('hmac',
   'C:\\Users\\null\\anaconda3\\envs\\distraction-helper\\lib\\hmac.py',
   'PYMODULE'),
  ('multiprocessing.reduction',
   'C:\\Users\\null\\anaconda3\\envs\\distraction-helper\\lib\\multiprocessing\\reduction.py',
   'PYMODULE'),
  ('multiprocessing.resource_sharer',
   'C:\\Users\\null\\anaconda3\\envs\\distraction-helper\\lib\\multiprocessing\\resource_sharer.py',
   'PYMODULE'),
  ('multiprocessing.connection',
   'C:\\Users\\null\\anaconda3\\envs\\distraction-helper\\lib\\multiprocessing\\connection.py',
   'PYMODULE'),
  ('xmlrpc.client',
   'C:\\Users\\null\\anaconda3\\envs\\distraction-helper\\lib\\xmlrpc\\client.py',
   'PYMODULE'),
  ('xmlrpc',
   'C:\\Users\\null\\anaconda3\\envs\\distraction-helper\\lib\\xmlrpc\\__init__.py',
   'PYMODULE'),
  ('gzip',
   'C:\\Users\\null\\anaconda3\\envs\\distraction-helper\\lib\\gzip.py',
   'PYMODULE'),
  ('xml.parsers.expat',
   'C:\\Users\\null\\anaconda3\\envs\\distraction-helper\\lib\\xml\\parsers\\expat.py',
   'PYMODULE'),
  ('xml.parsers',
   'C:\\Users\\null\\anaconda3\\envs\\distraction-helper\\lib\\xml\\parsers\\__init__.py',
   'PYMODULE'),
  ('xml',
   'C:\\Users\\null\\anaconda3\\envs\\distraction-helper\\lib\\xml\\__init__.py',
   'PYMODULE'),
  ('xml.sax.expatreader',
   'C:\\Users\\null\\anaconda3\\envs\\distraction-helper\\lib\\xml\\sax\\expatreader.py',
   'PYMODULE'),
  ('xml.sax.saxutils',
   'C:\\Users\\null\\anaconda3\\envs\\distraction-helper\\lib\\xml\\sax\\saxutils.py',
   'PYMODULE'),
  ('urllib.request',
   'C:\\Users\\null\\anaconda3\\envs\\distraction-helper\\lib\\urllib\\request.py',
   'PYMODULE'),
  ('getpass',
   'C:\\Users\\null\\anaconda3\\envs\\distraction-helper\\lib\\getpass.py',
   'PYMODULE'),
  ('nturl2path',
   'C:\\Users\\null\\anaconda3\\envs\\distraction-helper\\lib\\nturl2path.py',
   'PYMODULE'),
  ('ftplib',
   'C:\\Users\\null\\anaconda3\\envs\\distraction-helper\\lib\\ftplib.py',
   'PYMODULE'),
  ('netrc',
   'C:\\Users\\null\\anaconda3\\envs\\distraction-helper\\lib\\netrc.py',
   'PYMODULE'),
  ('shlex',
   'C:\\Users\\null\\anaconda3\\envs\\distraction-helper\\lib\\shlex.py',
   'PYMODULE'),
  ('mimetypes',
   'C:\\Users\\null\\anaconda3\\envs\\distraction-helper\\lib\\mimetypes.py',
   'PYMODULE'),
  ('http.cookiejar',
   'C:\\Users\\null\\anaconda3\\envs\\distraction-helper\\lib\\http\\cookiejar.py',
   'PYMODULE'),
  ('http',
   'C:\\Users\\null\\anaconda3\\envs\\distraction-helper\\lib\\http\\__init__.py',
   'PYMODULE'),
  ('urllib.response',
   'C:\\Users\\null\\anaconda3\\envs\\distraction-helper\\lib\\urllib\\response.py',
   'PYMODULE'),
  ('urllib.error',
   'C:\\Users\\null\\anaconda3\\envs\\distraction-helper\\lib\\urllib\\error.py',
   'PYMODULE'),
  ('xml.sax',
   'C:\\Users\\null\\anaconda3\\envs\\distraction-helper\\lib\\xml\\sax\\__init__.py',
   'PYMODULE'),
  ('xml.sax.handler',
   'C:\\Users\\null\\anaconda3\\envs\\distraction-helper\\lib\\xml\\sax\\handler.py',
   'PYMODULE'),
  ('xml.sax._exceptions',
   'C:\\Users\\null\\anaconda3\\envs\\distraction-helper\\lib\\xml\\sax\\_exceptions.py',
   'PYMODULE'),
  ('xml.sax.xmlreader',
   'C:\\Users\\null\\anaconda3\\envs\\distraction-helper\\lib\\xml\\sax\\xmlreader.py',
   'PYMODULE'),
  ('http.client',
   'C:\\Users\\null\\anaconda3\\envs\\distraction-helper\\lib\\http\\client.py',
   'PYMODULE'),
  ('multiprocessing',
   'C:\\Users\\null\\anaconda3\\envs\\distraction-helper\\lib\\multiprocessing\\__init__.py',
   'PYMODULE'),
  ('concurrent.futures._base',
   'C:\\Users\\null\\anaconda3\\envs\\distraction-helper\\lib\\concurrent\\futures\\_base.py',
   'PYMODULE'),
  ('concurrent',
   'C:\\Users\\null\\anaconda3\\envs\\distraction-helper\\lib\\concurrent\\__init__.py',
   'PYMODULE'),
  ('asyncio.trsock',
   'C:\\Users\\null\\anaconda3\\envs\\distraction-helper\\lib\\asyncio\\trsock.py',
   'PYMODULE'),
  ('asyncio.staggered',
   'C:\\Users\\null\\anaconda3\\envs\\distraction-helper\\lib\\asyncio\\staggered.py',
   'PYMODULE'),
  ('asyncio.tasks',
   'C:\\Users\\null\\anaconda3\\envs\\distraction-helper\\lib\\asyncio\\tasks.py',
   'PYMODULE'),
  ('asyncio.base_tasks',
   'C:\\Users\\null\\anaconda3\\envs\\distraction-helper\\lib\\asyncio\\base_tasks.py',
   'PYMODULE'),
  ('asyncio.locks',
   'C:\\Users\\null\\anaconda3\\envs\\distraction-helper\\lib\\asyncio\\locks.py',
   'PYMODULE'),
  ('asyncio.sslproto',
   'C:\\Users\\null\\anaconda3\\envs\\distraction-helper\\lib\\asyncio\\sslproto.py',
   'PYMODULE'),
  ('asyncio.transports',
   'C:\\Users\\null\\anaconda3\\envs\\distraction-helper\\lib\\asyncio\\transports.py',
   'PYMODULE'),
  ('asyncio.protocols',
   'C:\\Users\\null\\anaconda3\\envs\\distraction-helper\\lib\\asyncio\\protocols.py',
   'PYMODULE'),
  ('asyncio.futures',
   'C:\\Users\\null\\anaconda3\\envs\\distraction-helper\\lib\\asyncio\\futures.py',
   'PYMODULE'),
  ('asyncio.exceptions',
   'C:\\Users\\null\\anaconda3\\envs\\distraction-helper\\lib\\asyncio\\exceptions.py',
   'PYMODULE'),
  ('asyncio.coroutines',
   'C:\\Users\\null\\anaconda3\\envs\\distraction-helper\\lib\\asyncio\\coroutines.py',
   'PYMODULE'),
  ('asyncio.base_futures',
   'C:\\Users\\null\\anaconda3\\envs\\distraction-helper\\lib\\asyncio\\base_futures.py',
   'PYMODULE'),
  ('asyncio.format_helpers',
   'C:\\Users\\null\\anaconda3\\envs\\distraction-helper\\lib\\asyncio\\format_helpers.py',
   'PYMODULE'),
  ('asyncio.constants',
   'C:\\Users\\null\\anaconda3\\envs\\distraction-helper\\lib\\asyncio\\constants.py',
   'PYMODULE'),
  ('unittest.signals',
   'C:\\Users\\null\\anaconda3\\envs\\distraction-helper\\lib\\unittest\\signals.py',
   'PYMODULE'),
  ('unittest.main',
   'C:\\Users\\null\\anaconda3\\envs\\distraction-helper\\lib\\unittest\\main.py',
   'PYMODULE'),
  ('unittest.runner',
   'C:\\Users\\null\\anaconda3\\envs\\distraction-helper\\lib\\unittest\\runner.py',
   'PYMODULE'),
  ('unittest.loader',
   'C:\\Users\\null\\anaconda3\\envs\\distraction-helper\\lib\\unittest\\loader.py',
   'PYMODULE'),
  ('unittest.suite',
   'C:\\Users\\null\\anaconda3\\envs\\distraction-helper\\lib\\unittest\\suite.py',
   'PYMODULE'),
  ('unittest.case',
   'C:\\Users\\null\\anaconda3\\envs\\distraction-helper\\lib\\unittest\\case.py',
   'PYMODULE'),
  ('unittest._log',
   'C:\\Users\\null\\anaconda3\\envs\\distraction-helper\\lib\\unittest\\_log.py',
   'PYMODULE'),
  ('unittest.result',
   'C:\\Users\\null\\anaconda3\\envs\\distraction-helper\\lib\\unittest\\result.py',
   'PYMODULE'),
  ('unittest.util',
   'C:\\Users\\null\\anaconda3\\envs\\distraction-helper\\lib\\unittest\\util.py',
   'PYMODULE'),
  ('pdb',
   'C:\\Users\\null\\anaconda3\\envs\\distraction-helper\\lib\\pdb.py',
   'PYMODULE'),
  ('pydoc',
   'C:\\Users\\null\\anaconda3\\envs\\distraction-helper\\lib\\pydoc.py',
   'PYMODULE'),
  ('webbrowser',
   'C:\\Users\\null\\anaconda3\\envs\\distraction-helper\\lib\\webbrowser.py',
   'PYMODULE'),
  ('http.server',
   'C:\\Users\\null\\anaconda3\\envs\\distraction-helper\\lib\\http\\server.py',
   'PYMODULE'),
  ('socketserver',
   'C:\\Users\\null\\anaconda3\\envs\\distraction-helper\\lib\\socketserver.py',
   'PYMODULE'),
  ('html',
   'C:\\Users\\null\\anaconda3\\envs\\distraction-helper\\lib\\html\\__init__.py',
   'PYMODULE'),
  ('html.entities',
   'C:\\Users\\null\\anaconda3\\envs\\distraction-helper\\lib\\html\\entities.py',
   'PYMODULE'),
  ('pydoc_data.topics',
   'C:\\Users\\null\\anaconda3\\envs\\distraction-helper\\lib\\pydoc_data\\topics.py',
   'PYMODULE'),
  ('pydoc_data',
   'C:\\Users\\null\\anaconda3\\envs\\distraction-helper\\lib\\pydoc_data\\__init__.py',
   'PYMODULE'),
  ('tty',
   'C:\\Users\\null\\anaconda3\\envs\\distraction-helper\\lib\\tty.py',
   'PYMODULE'),
  ('sysconfig',
   'C:\\Users\\null\\anaconda3\\envs\\distraction-helper\\lib\\sysconfig.py',
   'PYMODULE'),
  ('_aix_support',
   'C:\\Users\\null\\anaconda3\\envs\\distraction-helper\\lib\\_aix_support.py',
   'PYMODULE'),
  ('_bootsubprocess',
   'C:\\Users\\null\\anaconda3\\envs\\distraction-helper\\lib\\_bootsubprocess.py',
   'PYMODULE'),
  ('platform',
   'C:\\Users\\null\\anaconda3\\envs\\distraction-helper\\lib\\platform.py',
   'PYMODULE'),
  ('plistlib',
   'C:\\Users\\null\\anaconda3\\envs\\distraction-helper\\lib\\plistlib.py',
   'PYMODULE'),
  ('glob',
   'C:\\Users\\null\\anaconda3\\envs\\distraction-helper\\lib\\glob.py',
   'PYMODULE'),
  ('code',
   'C:\\Users\\null\\anaconda3\\envs\\distraction-helper\\lib\\code.py',
   'PYMODULE'),
  ('codeop',
   'C:\\Users\\null\\anaconda3\\envs\\distraction-helper\\lib\\codeop.py',
   'PYMODULE'),
  ('dis',
   'C:\\Users\\null\\anaconda3\\envs\\distraction-helper\\lib\\dis.py',
   'PYMODULE'),
  ('opcode',
   'C:\\Users\\null\\anaconda3\\envs\\distraction-helper\\lib\\opcode.py',
   'PYMODULE'),
  ('bdb',
   'C:\\Users\\null\\anaconda3\\envs\\distraction-helper\\lib\\bdb.py',
   'PYMODULE'),
  ('cmd',
   'C:\\Users\\null\\anaconda3\\envs\\distraction-helper\\lib\\cmd.py',
   'PYMODULE'),
  ('inspect',
   'C:\\Users\\null\\anaconda3\\envs\\distraction-helper\\lib\\inspect.py',
   'PYMODULE'),
  ('ast',
   'C:\\Users\\null\\anaconda3\\envs\\distraction-helper\\lib\\ast.py',
   'PYMODULE'),
  ('difflib',
   'C:\\Users\\null\\anaconda3\\envs\\distraction-helper\\lib\\difflib.py',
   'PYMODULE'),
  ('__future__',
   'C:\\Users\\null\\anaconda3\\envs\\distraction-helper\\lib\\__future__.py',
   'PYMODULE'),
  ('_compat_pickle',
   'C:\\Users\\null\\anaconda3\\envs\\distraction-helper\\lib\\_compat_pickle.py',
   'PYMODULE'),
  ('bisect',
   'C:\\Users\\null\\anaconda3\\envs\\distraction-helper\\lib\\bisect.py',
   'PYMODULE'),
  ('shutil',
   'C:\\Users\\null\\anaconda3\\envs\\distraction-helper\\lib\\shutil.py',
   'PYMODULE'),
  ('tarfile',
   'C:\\Users\\null\\anaconda3\\envs\\distraction-helper\\lib\\tarfile.py',
   'PYMODULE'),
  ('distutils.util',
   'C:\\Users\\null\\anaconda3\\envs\\distraction-helper\\lib\\distutils\\util.py',
   'PYMODULE'),
  ('distutils.filelist',
   'C:\\Users\\null\\anaconda3\\envs\\distraction-helper\\lib\\distutils\\filelist.py',
   'PYMODULE'),
  ('distutils.dep_util',
   'C:\\Users\\null\\anaconda3\\envs\\distraction-helper\\lib\\distutils\\dep_util.py',
   'PYMODULE'),
  ('distutils.dir_util',
   'C:\\Users\\null\\anaconda3\\envs\\distraction-helper\\lib\\distutils\\dir_util.py',
   'PYMODULE'),
  ('distutils.file_util',
   'C:\\Users\\null\\anaconda3\\envs\\distraction-helper\\lib\\distutils\\file_util.py',
   'PYMODULE'),
  ('distutils.spawn',
   'C:\\Users\\null\\anaconda3\\envs\\distraction-helper\\lib\\distutils\\spawn.py',
   'PYMODULE'),
  ('distutils.log',
   'C:\\Users\\null\\anaconda3\\envs\\distraction-helper\\lib\\distutils\\log.py',
   'PYMODULE'),
  ('distutils.text_file',
   'C:\\Users\\null\\anaconda3\\envs\\distraction-helper\\lib\\distutils\\text_file.py',
   'PYMODULE'),
  ('_osx_support',
   'C:\\Users\\null\\anaconda3\\envs\\distraction-helper\\lib\\_osx_support.py',
   'PYMODULE'),
  ('distutils.errors',
   'C:\\Users\\null\\anaconda3\\envs\\distraction-helper\\lib\\distutils\\errors.py',
   'PYMODULE'),
  ('imp',
   'C:\\Users\\null\\anaconda3\\envs\\distraction-helper\\lib\\imp.py',
   'PYMODULE'),
  ('win32com',
   'C:\\Users\\null\\anaconda3\\envs\\distraction-helper\\lib\\site-packages\\win32com\\__init__.py',
   'PYMODULE'),
  ('win32com.server.util',
   'C:\\Users\\null\\anaconda3\\envs\\distraction-helper\\lib\\site-packages\\win32com\\server\\util.py',
   'PYMODULE'),
  ('win32com.server.dispatcher',
   'C:\\Users\\null\\anaconda3\\envs\\distraction-helper\\lib\\site-packages\\win32com\\server\\dispatcher.py',
   'PYMODULE'),
  ('win32traceutil',
   'C:\\Users\\null\\anaconda3\\envs\\distraction-helper\\lib\\site-packages\\win32\\lib\\win32traceutil.py',
   'PYMODULE'),
  ('win32com.util',
   'C:\\Users\\null\\anaconda3\\envs\\distraction-helper\\lib\\site-packages\\win32com\\util.py',
   'PYMODULE'),
  ('win32com.server.exception',
   'C:\\Users\\null\\anaconda3\\envs\\distraction-helper\\lib\\site-packages\\win32com\\server\\exception.py',
   'PYMODULE'),
  ('winerror',
   'C:\\Users\\null\\anaconda3\\envs\\distraction-helper\\lib\\site-packages\\win32\\lib\\winerror.py',
   'PYMODULE'),
  ('win32com.server.policy',
   'C:\\Users\\null\\anaconda3\\envs\\distraction-helper\\lib\\site-packages\\win32com\\server\\policy.py',
   'PYMODULE'),
  ('win32com.client',
   'C:\\Users\\null\\anaconda3\\envs\\distraction-helper\\lib\\site-packages\\win32com\\client\\__init__.py',
   'PYMODULE'),
  ('win32com.client.makepy',
   'C:\\Users\\null\\anaconda3\\envs\\distraction-helper\\lib\\site-packages\\win32com\\client\\makepy.py',
   'PYMODULE'),
  ('pywin.dialogs.status',
   'C:\\Users\\null\\anaconda3\\envs\\distraction-helper\\lib\\site-packages\\Pythonwin\\pywin\\dialogs\\status.py',
   'PYMODULE'),
  ('pywin.mfc.thread',
   'C:\\Users\\null\\anaconda3\\envs\\distraction-helper\\lib\\site-packages\\Pythonwin\\pywin\\mfc\\thread.py',
   'PYMODULE'),
  ('pywin.mfc.object',
   'C:\\Users\\null\\anaconda3\\envs\\distraction-helper\\lib\\site-packages\\Pythonwin\\pywin\\mfc\\object.py',
   'PYMODULE'),
  ('pywin.mfc.dialog',
   'C:\\Users\\null\\anaconda3\\envs\\distraction-helper\\lib\\site-packages\\Pythonwin\\pywin\\mfc\\dialog.py',
   'PYMODULE'),
  ('pywin.mfc.window',
   'C:\\Users\\null\\anaconda3\\envs\\distraction-helper\\lib\\site-packages\\Pythonwin\\pywin\\mfc\\window.py',
   'PYMODULE'),
  ('pywin.mfc',
   'C:\\Users\\null\\anaconda3\\envs\\distraction-helper\\lib\\site-packages\\Pythonwin\\pywin\\mfc\\__init__.py',
   'PYMODULE'),
  ('pywin.dialogs',
   'C:\\Users\\null\\anaconda3\\envs\\distraction-helper\\lib\\site-packages\\Pythonwin\\pywin\\dialogs\\__init__.py',
   'PYMODULE'),
  ('pywin',
   'C:\\Users\\null\\anaconda3\\envs\\distraction-helper\\lib\\site-packages\\Pythonwin\\pywin\\__init__.py',
   'PYMODULE'),
  ('win32com.client.gencache',
   'C:\\Users\\null\\anaconda3\\envs\\distraction-helper\\lib\\site-packages\\win32com\\client\\gencache.py',
   'PYMODULE'),
  ('win32com.client.selecttlb',
   'C:\\Users\\null\\anaconda3\\envs\\distraction-helper\\lib\\site-packages\\win32com\\client\\selecttlb.py',
   'PYMODULE'),
  ('pywin.dialogs.list',
   'C:\\Users\\null\\anaconda3\\envs\\distraction-helper\\lib\\site-packages\\Pythonwin\\pywin\\dialogs\\list.py',
   'PYMODULE'),
  ('commctrl',
   'C:\\Users\\null\\anaconda3\\envs\\distraction-helper\\lib\\site-packages\\win32\\lib\\commctrl.py',
   'PYMODULE'),
  ('win32com.client.genpy',
   'C:\\Users\\null\\anaconda3\\envs\\distraction-helper\\lib\\site-packages\\win32com\\client\\genpy.py',
   'PYMODULE'),
  ('win32com.client.CLSIDToClass',
   'C:\\Users\\null\\anaconda3\\envs\\distraction-helper\\lib\\site-packages\\win32com\\client\\CLSIDToClass.py',
   'PYMODULE'),
  ('win32com.client.dynamic',
   'C:\\Users\\null\\anaconda3\\envs\\distraction-helper\\lib\\site-packages\\win32com\\client\\dynamic.py',
   'PYMODULE'),
  ('win32com.client.build',
   'C:\\Users\\null\\anaconda3\\envs\\distraction-helper\\lib\\site-packages\\win32com\\client\\build.py',
   'PYMODULE'),
  ('win32com.server',
   'C:\\Users\\null\\anaconda3\\envs\\distraction-helper\\lib\\site-packages\\win32com\\server\\__init__.py',
   'PYMODULE'),
  ('win32com.universal',
   'C:\\Users\\null\\anaconda3\\envs\\distraction-helper\\lib\\site-packages\\win32com\\universal.py',
   'PYMODULE'),
  ('win32com.client.util',
   'C:\\Users\\null\\anaconda3\\envs\\distraction-helper\\lib\\site-packages\\win32com\\client\\util.py',
   'PYMODULE'),
  ('pythoncom',
   'C:\\Users\\null\\anaconda3\\envs\\distraction-helper\\lib\\site-packages\\pythoncom.py',
   'PYMODULE'),
  ('stringprep',
   'C:\\Users\\null\\anaconda3\\envs\\distraction-helper\\lib\\stringprep.py',
   'PYMODULE'),
  ('_py_abc',
   'C:\\Users\\null\\anaconda3\\envs\\distraction-helper\\lib\\_py_abc.py',
   'PYMODULE'),
  ('tracemalloc',
   'C:\\Users\\null\\anaconda3\\envs\\distraction-helper\\lib\\tracemalloc.py',
   'PYMODULE'),
  ('win32con',
   'C:\\Users\\null\\anaconda3\\envs\\distraction-helper\\lib\\site-packages\\win32\\lib\\win32con.py',
   'PYMODULE'),
  ('psutil',
   'C:\\Users\\null\\anaconda3\\envs\\distraction-helper\\lib\\site-packages\\psutil\\__init__.py',
   'PYMODULE'),
  ('psutil._psaix',
   'C:\\Users\\null\\anaconda3\\envs\\distraction-helper\\lib\\site-packages\\psutil\\_psaix.py',
   'PYMODULE'),
  ('psutil._pssunos',
   'C:\\Users\\null\\anaconda3\\envs\\distraction-helper\\lib\\site-packages\\psutil\\_pssunos.py',
   'PYMODULE'),
  ('psutil._psbsd',
   'C:\\Users\\null\\anaconda3\\envs\\distraction-helper\\lib\\site-packages\\psutil\\_psbsd.py',
   'PYMODULE'),
  ('xml.etree.ElementTree',
   'C:\\Users\\null\\anaconda3\\envs\\distraction-helper\\lib\\xml\\etree\\ElementTree.py',
   'PYMODULE'),
  ('xml.etree.cElementTree',
   'C:\\Users\\null\\anaconda3\\envs\\distraction-helper\\lib\\xml\\etree\\cElementTree.py',
   'PYMODULE'),
  ('xml.etree.ElementInclude',
   'C:\\Users\\null\\anaconda3\\envs\\distraction-helper\\lib\\xml\\etree\\ElementInclude.py',
   'PYMODULE'),
  ('xml.etree.ElementPath',
   'C:\\Users\\null\\anaconda3\\envs\\distraction-helper\\lib\\xml\\etree\\ElementPath.py',
   'PYMODULE'),
  ('xml.etree',
   'C:\\Users\\null\\anaconda3\\envs\\distraction-helper\\lib\\xml\\etree\\__init__.py',
   'PYMODULE'),
  ('psutil._psosx',
   'C:\\Users\\null\\anaconda3\\envs\\distraction-helper\\lib\\site-packages\\psutil\\_psosx.py',
   'PYMODULE'),
  ('psutil._pswindows',
   'C:\\Users\\null\\anaconda3\\envs\\distraction-helper\\lib\\site-packages\\psutil\\_pswindows.py',
   'PYMODULE'),
  ('psutil._pslinux',
   'C:\\Users\\null\\anaconda3\\envs\\distraction-helper\\lib\\site-packages\\psutil\\_pslinux.py',
   'PYMODULE'),
  ('psutil._psposix',
   'C:\\Users\\null\\anaconda3\\envs\\distraction-helper\\lib\\site-packages\\psutil\\_psposix.py',
   'PYMODULE'),
  ('psutil._compat',
   'C:\\Users\\null\\anaconda3\\envs\\distraction-helper\\lib\\site-packages\\psutil\\_compat.py',
   'PYMODULE'),
  ('psutil._common',
   'C:\\Users\\null\\anaconda3\\envs\\distraction-helper\\lib\\site-packages\\psutil\\_common.py',
   'PYMODULE'),
  ('curses',
   'C:\\Users\\null\\anaconda3\\envs\\distraction-helper\\lib\\curses\\__init__.py',
   'PYMODULE'),
  ('curses.has_key',
   'C:\\Users\\null\\anaconda3\\envs\\distraction-helper\\lib\\curses\\has_key.py',
   'PYMODULE'),
  ('utility',
   'C:\\Users\\null\\Documents\\distraction-helper\\utility.py',
   'PYMODULE'),
  ('wmi',
   'C:\\Users\\null\\anaconda3\\envs\\distraction-helper\\lib\\site-packages\\wmi.py',
   'PYMODULE'),
  ('ctypes.wintypes',
   'C:\\Users\\null\\anaconda3\\envs\\distraction-helper\\lib\\ctypes\\wintypes.py',
   'PYMODULE'),
  ('ui', 'C:\\Users\\null\\Documents\\distraction-helper\\ui.py', 'PYMODULE'),
  ('tkinter',
   'C:\\Users\\null\\anaconda3\\envs\\distraction-helper\\lib\\tkinter\\__init__.py',
   'PYMODULE'),
  ('tkinter.constants',
   'C:\\Users\\null\\anaconda3\\envs\\distraction-helper\\lib\\tkinter\\constants.py',
   'PYMODULE')])
